(footprint "Converter_DCDC_TRACO_TBA2-xxxx_Dual_THT" (version 20221018) (generator pcbnew)
  (layer "F.Cu")
  (descr "DCDC-Converter, TRACO, TBA2-xxxx, Dual, 2W, Rev. October 12. 2023 (Script generated with StandardBox.py) (https://www.tracopower.com/products/tba2.pdf)")
  (tags "DCDC-Converter TRACO TBA2 THT SIP-7 2W")
  (attr through_hole)
  (fp_text reference "REF**" (at -3.6 -3.6) (layer "F.SilkS")
      (effects (font (size 1 1) (thickness 0.15)))
    (tstamp a70e6315-3ce3-49e2-9802-df6b840b790f)
  )
  (fp_text value "Converter_DCDC_TRACO_TBA2-xxxx_Dual_THT" (at -2.3 18.15) (layer "F.Fab")
      (effects (font (size 1 1) (thickness 0.15)))
    (tstamp c677d8e0-c337-49b7-930d-8091d1ac92ef)
  )
  (fp_text user "${REFERENCE}" (at -2.3 7.375) (layer "F.Fab")
      (effects (font (size 1 1) (thickness 0.15)))
    (tstamp 13fea1be-9206-46d9-8957-22e5f282be3b)
  )
  (fp_line (start -6.6 -2.9) (end -4.07 -2.9)
    (stroke (width 0.12) (type solid)) (layer "F.SilkS") (tstamp a5f28752-a0aa-40a0-aa9b-65445ae1dc34))
  (fp_line (start -6.6 -0.37) (end -6.6 -2.9)
    (stroke (width 0.12) (type solid)) (layer "F.SilkS") (tstamp 6c77f935-7932-471c-b53d-67a5c964a477))
  (fp_line (start -6.22 -2.52) (end -6.22 17.27)
    (stroke (width 0.12) (type solid)) (layer "F.SilkS") (tstamp ea9c5847-3076-47a3-9d61-1d8ff5264657))
  (fp_line (start -6.22 -2.52) (end 1.62 -2.52)
    (stroke (width 0.12) (type solid)) (layer "F.SilkS") (tstamp 3d8203e6-e0ed-4ee7-ad5c-c3c8a5bd25b6))
  (fp_line (start -6.22 17.27) (end 1.62 17.27)
    (stroke (width 0.12) (type solid)) (layer "F.SilkS") (tstamp 8c600212-36ee-4d0e-96ea-92b16020f34e))
  (fp_line (start 1.62 -2.52) (end 1.62 17.27)
    (stroke (width 0.12) (type solid)) (layer "F.SilkS") (tstamp eadffb92-f975-4fc2-8c72-e76d2d53910e))
  (fp_line (start -6.35 -2.65) (end -6.35 17.4)
    (stroke (width 0.05) (type solid)) (layer "F.CrtYd") (tstamp a6a675ed-6867-40cb-8ea2-d8a9f5b4287e))
  (fp_line (start -6.35 -2.65) (end 1.75 -2.65)
    (stroke (width 0.05) (type solid)) (layer "F.CrtYd") (tstamp da4e1cca-9138-4087-aa1d-dd58e3238bac))
  (fp_line (start -6.35 17.4) (end 1.75 17.4)
    (stroke (width 0.05) (type solid)) (layer "F.CrtYd") (tstamp 341cf0be-a2a6-4821-811f-cd3d54c23688))
  (fp_line (start 1.75 -2.65) (end 1.75 17.4)
    (stroke (width 0.05) (type solid)) (layer "F.CrtYd") (tstamp c85a60b3-3c62-478b-9724-d9800df3e017))
  (fp_line (start -6.1 -1.4) (end -5.1 -2.4)
    (stroke (width 0.1) (type solid)) (layer "F.Fab") (tstamp 4fe0d233-9dc2-4b64-bc92-031b9cddbee1))
  (fp_line (start -6.1 17.15) (end -6.1 -1.4)
    (stroke (width 0.1) (type solid)) (layer "F.Fab") (tstamp c2dbce89-9748-466d-b9a8-6308c396d465))
  (fp_line (start -5.1 -2.4) (end 1.5 -2.4)
    (stroke (width 0.1) (type solid)) (layer "F.Fab") (tstamp 947293cb-73b7-4302-af39-feb701d701aa))
  (fp_line (start 1.5 -2.4) (end 1.5 17.15)
    (stroke (width 0.1) (type solid)) (layer "F.Fab") (tstamp b831ab6e-e7e0-4110-91ca-bbaa5ec20a1f))
  (fp_line (start 1.5 17.15) (end -6.1 17.15)
    (stroke (width 0.1) (type solid)) (layer "F.Fab") (tstamp 6599a0fd-a077-49a1-af04-477f8bde46e3))
  (pad "1" thru_hole rect (at 0 0) (size 1.5 1.5) (drill 1) (layers "*.Cu" "*.Mask") (tstamp 46208365-eff4-4df3-8185-edadc91b8c29))
  (pad "2" thru_hole circle (at 0 2.54) (size 1.5 1.5) (drill 1) (layers "*.Cu" "*.Mask") (tstamp 11fe8afd-5fbe-4d81-9958-ca0cfd867794))
  (pad "4" thru_hole circle (at 0 7.62) (size 1.5 1.5) (drill 1) (layers "*.Cu" "*.Mask") (tstamp 7f3a76ff-cfb4-4470-a148-69885bcd33e0))
  (pad "5" thru_hole circle (at 0 10.16) (size 1.5 1.5) (drill 1) (layers "*.Cu" "*.Mask") (tstamp c777cd43-a6a5-419a-b6b1-468c48f61dc1))
  (pad "6" thru_hole circle (at 0 12.7) (size 1.5 1.5) (drill 1) (layers "*.Cu" "*.Mask") (tstamp d9ebf244-8f4e-417c-a755-1a5af6d7937b))
  (model "${KICAD7_3DMODEL_DIR}/Converter_DCDC.3dshapes/Converter_DCDC_TRACO_TBA2-xxxx_Dual_THT.wrl"
    (offset (xyz 0 0 0))
    (scale (xyz 1 1 1))
    (rotate (xyz 0 0 0))
  )
)
